[
  {
    "model": {
      "id": 19876065,
      "createdDate": 1410183919000,
      "updatedDate": 1466642787995,
      "stage": "RELEASED",
      "title": "Bogus artifact to test PUT method",
      "overview": "Just used to test the put method in ConnectionManagerIT",
      "cveYear": "2011",
      "cveDigits": "1026",
      "cveStatus": "FINAL"
    },
    "id": 19876065,
    "_severity": 5
  },
  {
    "model": {
      "id": 19876066,
      "createdDate": 1410183919000,
      "updatedDate": 1466642787995,
      "stage": "RELEASED",
      "title": "Bogus artifact to test DELETE method",
      "overview": "Just used to test the delete method in ConnectionManagerIT"
    },
    "id": 19876066,
    "_version": null,
    "_vulnCount": 0,
    "_when": 1477196087798
  },
  {
    "_vulnCount": 0,
    "type": "LIBRARY",
    "model": {
      "codeRepoType": null,
      "creationDate": 1420499327000,
      "authorUrl": "http://stax.codehaus.org/",
      "latestRelease": {
        "releaseDate": 1167673393000,
        "sha2": "df6905a047b05e23bc91f03ba57ac2f87c1ddf83e048aa0e5bd13169d5ebf0d9",
        "licenses": [],
        "sha1": "c434800de5e4bbe1822805be5fb1c32d6834f830",
        "lineCount": 16915,
        "platform": "",
        "vulnCounts": null,
        "bytecodeHash": "e386fddce7a97a780b918907329bd55b8506909d1c4fea1f23b7660cb6f03c01",
        "dateAdded": 1420499327000,
        "releaseStatus": "Release",
        "publicMethods": [],
        "licenseInfoModels": [
          {
            "name": null,
            "license": "UNKNOWN",
            "licenseFile": null,
            "version": null,
            "groupId": null,
            "artifactId": null
          }
        ],
        "coordVersionHash": "maven:stax:stax:1.2.0:",
        "id": 4311,
        "version": "1.2.0",
        "links": {}
      },
      "bugTrackerUrl": "http://jira.codehaus.org/browse/STAX",
      "coordinateType": "MAVEN",
      "versions": [],
      "updatedDate": 1470034116605,
      "name": "StAX",
      "coordinate2": "stax",
      "coordinate1": "stax",
      "codeRepoUrl": "http://cvs.stax.codehaus.org/stax/",
      "latestReleaseVersion": "1.2.0",
      "description": "Bogus API Library with altered Popularity to test we preserve popularity values across indexing",
      "id": 19876067,
      "author": "Indiana University",
      "lastSynced": 1470034115784,
      "links": {},
      "languageType": "JAVA"
    },
    "_version": null,
    "_when": 1470034116605,
    "id": 19876067,
    "_popularity": 200.0
  },
  {
    "_vulnerableMethods": false,
    "type": "ARTIFACT",
    "model": {
      "cveStatus": "FINAL",
      "overview": "Cross-site scripting (XSS) vulnerability in exceptions.rb in the i18n gem before 0.6.6 for Ruby allows remote attackers to inject arbitrary web script or HTML via a crafted I18n::MissingTranslationData.new call.",
      "hasExploits": false,
      "nvdCvssScore": 4.3,
      "title": "Cross-site Scripting (XSS)  I18n::MissingTranslationData.new Call",
      "artifactComponents": [
      ],
      "cveDigits": "4492",
      "artifactLinks": [
      ],
      "updatedDate": 1461676084899,
      "disclosureDate": 1386000000000,
      "vulnerabilityTypes": [
        "Cross Site Scripting (XSS)"
      ],
      "community": false,
      "priceInCents": 0,
      "cveYear": "2017",
      "id": 19876876,
      "nvdCvssVector": "(AV:N/AC:M/Au:N/C:N/I:P/A:N)",
      "createdDate": 1402955076000,
      "stage": "DRAFT",
      "links": {},
      "language": "RUBY"
    },
    "_enhanced": 0,
    "id": 19876876,
    "_when": 1386000000000,
    "_severity": 4.3
  }
]
